\relax 
\@writefile{toc}{\contentsline {section}{\numberline {1}Introduction}{4}}
\@writefile{toc}{\contentsline {section}{\numberline {2}Server}{5}}
\@writefile{toc}{\contentsline {subsection}{\numberline {2.1}Waiting for client}{5}}
\@writefile{toc}{\contentsline {section}{\numberline {3}Home}{5}}
\@writefile{lof}{\contentsline {figure}{\numberline {1}{\ignorespaces The program has received some of the data that it is expecting, but not all of them}}{6}}
\@writefile{lof}{\contentsline {figure}{\numberline {2}{\ignorespaces The home tab provides a 'quick look' to the received information because it finishes the last}}{7}}
\@writefile{toc}{\contentsline {section}{\numberline {4}User info}{7}}
\@writefile{lof}{\contentsline {figure}{\numberline {3}{\ignorespaces The user info tab, where the first user was selected}}{8}}
\@writefile{toc}{\contentsline {subsection}{\numberline {4.1}Cracking password}{8}}
\@writefile{lof}{\contentsline {figure}{\numberline {4}{\ignorespaces John is trying to crack the password of root}}{9}}
\@writefile{lof}{\contentsline {figure}{\numberline {5}{\ignorespaces John successfully cracked the password, and it updated the password-field as well}}{10}}
\@writefile{toc}{\contentsline {section}{\numberline {5}.config file}{10}}
\@writefile{lof}{\contentsline {figure}{\numberline {6}{\ignorespaces The config tab showing the .config file}}{11}}
\@writefile{toc}{\contentsline {section}{\numberline {6}Important data}{11}}
\@writefile{toc}{\contentsline {subsection}{\numberline {6.1}Ports}{12}}
\@writefile{toc}{\contentsline {subsection}{\numberline {6.2}Pipes}{12}}
\@writefile{lof}{\contentsline {figure}{\numberline {7}{\ignorespaces A selected port }}{13}}
\@writefile{toc}{\contentsline {subsection}{\numberline {6.3}SUID}{13}}
\@writefile{lof}{\contentsline {figure}{\numberline {8}{\ignorespaces A pipe being used by sublime and plugin-host}}{14}}
\@writefile{lof}{\contentsline {figure}{\numberline {9}{\ignorespaces An SUID file selected}}{15}}
\@writefile{toc}{\contentsline {subsection}{\numberline {6.4}cron}{15}}
\@writefile{lof}{\contentsline {figure}{\numberline {10}{\ignorespaces One cron.daily job selected}}{16}}
\@writefile{toc}{\contentsline {section}{\numberline {7}Process info}{16}}
\@writefile{lof}{\contentsline {figure}{\numberline {11}{\ignorespaces Process java selected}}{17}}
\@writefile{toc}{\contentsline {section}{\numberline {8}Kernel info}{18}}
\@writefile{toc}{\contentsline {subsection}{\numberline {8.1}Block kexec}{18}}
\@writefile{toc}{\contentsline {subsection}{\numberline {8.2}Stack protector}{18}}
\@writefile{lof}{\contentsline {figure}{\numberline {12}{\ignorespaces Information about the CPU of the targeted system}}{19}}
\@writefile{toc}{\contentsline {subsection}{\numberline {8.3}Syscall Filtering}{19}}
\@writefile{toc}{\contentsline {subsection}{\numberline {8.4}dev/mem protection}{19}}
\@writefile{toc}{\contentsline {subsection}{\numberline {8.5}Read-only data sections}{20}}
\@writefile{toc}{\contentsline {subsection}{\numberline {8.6}Module RO/NX}{20}}
\@writefile{toc}{\contentsline {subsection}{\numberline {8.7}Address 0 protection}{20}}
\@writefile{toc}{\contentsline {subsection}{\numberline {8.8}SMACK}{20}}
\@writefile{toc}{\contentsline {subsection}{\numberline {8.9}/dev/kmem}{20}}
\@writefile{toc}{\contentsline {subsection}{\numberline {8.10}Booted in}{21}}
\@writefile{toc}{\contentsline {subsection}{\numberline {8.11}Blacklist.conf}{21}}
\@writefile{toc}{\contentsline {subsection}{\numberline {8.12}SELinux}{21}}
\@writefile{toc}{\contentsline {subsection}{\numberline {8.13}Kernel Address Display Restriction}{21}}
\@writefile{toc}{\contentsline {subsection}{\numberline {8.14}dmesg restrictions}{21}}
\@writefile{toc}{\contentsline {subsection}{\numberline {8.15}Kernel Address Space Layout Randomisation}{22}}
\@writefile{toc}{\contentsline {subsection}{\numberline {8.16}Ptrace}{22}}
\@writefile{toc}{\contentsline {subsection}{\numberline {8.17}Symlink restrictions}{22}}
\@writefile{toc}{\contentsline {subsection}{\numberline {8.18}Hardlink restrictions}{22}}
\@writefile{toc}{\contentsline {subsection}{\numberline {8.19}SYN coockies protection}{22}}
\@writefile{toc}{\contentsline {section}{\numberline {9}Networking}{23}}
\@writefile{toc}{\contentsline {subsection}{\numberline {9.1}certificates}{23}}
\@writefile{lof}{\contentsline {figure}{\numberline {13}{\ignorespaces One SSL certificate selected}}{24}}
\@writefile{toc}{\contentsline {section}{\numberline {10}Pysec script}{24}}
\@writefile{lof}{\contentsline {figure}{\numberline {14}{\ignorespaces The script options}}{25}}
\@writefile{lof}{\contentsline {figure}{\numberline {15}{\ignorespaces The scanning is done}}{26}}
